[32m2018-02-10 17:58:55,907 INFO [org.apereo.cas.configuration.config.CasCoreBootstrapStandaloneConfiguration] - <Configuration files found at [\etc\cas\config] are [[\etc\cas\config\application.yml, \etc\cas\config\cas.properties]]>[m
[32m2018-02-10 17:58:55,954 INFO [org.apereo.cas.configuration.config.CasCoreBootstrapStandaloneConfiguration] - <Found and loaded [22] setting(s) from [\etc\cas\config]>[m
[32m2018-02-10 17:58:55,954 INFO [org.springframework.cloud.bootstrap.config.PropertySourceBootstrapConfiguration] - <Located property source: PropertiesPropertySource {name='standaloneCasConfigService'}>[m
