[32m2018-05-06 23:55:46,774 INFO [org.apereo.cas.configuration.config.CasCoreBootstrapStandaloneConfiguration] - <Configuration files found at [\etc\cas\config] are [[\etc\cas\config\application.yml, \etc\cas\config\cas.properties]]>[m
[32m2018-05-06 23:55:46,852 INFO [org.apereo.cas.configuration.config.CasCoreBootstrapStandaloneConfiguration] - <Found and loaded [24] setting(s) from [\etc\cas\config]>[m
[32m2018-05-06 23:55:46,852 INFO [org.springframework.cloud.bootstrap.config.PropertySourceBootstrapConfiguration] - <Located property source: PropertiesPropertySource {name='standaloneCasConfigService'}>[m
